{
  "@class" : "com.findwise.sep.api.user.User",
  "id" : "admin",
  "password" : "$2a$10$dKQFO10.CMazVsH6I1ROmu1JS/Rr9X9JVAPwT5iVxvMyRGOFOAsiq",
  "version" : 1,
  "administrator" : true,
  "scopeIds" : [ ]
}