{
    "description": "Elasticsearch node log",
    "processors": [
        {
            "set": {
                "tag": "set_i3_service",
                "field": "i3_service",
                "value": "elasticsearch"
            }
        },
        {
            "grok": {
                "tag": "grok",
                "field": "message",
                "patterns": ["\\[%{TIMESTAMP_ISO8601:logdate}\\]\\[%{DATA:loglevel}%{SPACE}\\]\\[%{DATA:logger}%{SPACE}\\](?:%{SPACE}\\[%{DATA:host}\\])?%{SPACE}%{GREEDYDATA:msg}"],
                "on_failure": [
                    {
                        "append": {
                            "field": "error",
                            "value": "[{{ _ingest.on_failure_processor_tag }}] GROK parsing failed: {{ _ingest.on_failure_message }}"
                        }
                    }
                ]
            }
        },
        {
            "set": {
                "field": "host",
                "value": "{{agent.hostname}}"
            }
        },
        {
            "date": {
                "tag": "date_match_logdate",
                "field": "logdate",
                "formats": ["yyyy-MM-dd'T'HH:mm:ss,SSSz"],
                "on_failure": [
                    {
                        "append": {
                            "field": "error",
                            "value": "[{{ _ingest.on_failure_processor_tag }}] Failed to parse 'logdate': {{ _ingest.on_failure_message }}"
                        }
                    }
                ]
            }
        },
        {
            "remove": {
                "tag": "remove_logdate",
                "field": "logdate",
                "ignore_failure": true
            }
        },
        {
            "date_index_name": {
                "tag": "set_index",
                "index_name_prefix": "operations-",
                "index_name_format": "yyyy.MM",
                "field": "@timestamp",
                "date_rounding": "M",
                "on_failure": [
                    {
                        "append": {
                            "field": "error",
                            "value": "[{{ _ingest.on_failure_processor_tag }}] Failed to set index: {{ _ingest.on_failure_message }}"
                        }
                    }
                ]
            }
        }
    ]
}