{
    "description": "i3 clicks",
    "processors": [
        {
            "set": {
                "tag": "set_i3_service",
                "field": "i3_service",
                "value": "search"
            }
        },
        {
            "set": {
                "tag": "set_event_type",
                "field": "event_type",
                "value": "click"
            }
        },
        {
            "date_index_name": {
                "tag": "set_index",
                "index_name_prefix": "analytics-",
                "index_name_format": "yyyy.MM",
                "field": "timeOfSearch.time",
                "date_rounding": "M",
                "on_failure": [
                    {
                        "append": {
                            "field": "error",
                            "value": "[{{ _ingest.on_failure_processor_tag }}] Failed to set index: {{ _ingest.on_failure_message }}"
                        }
                    }
                ]
            }
        }
    ]
}